<svg width="19" height="23" viewBox="0 0 19 23" fill="none" xmlns="http://www.w3.org/2000/svg">
<path d="M14.9255 19.2603H13.5409V20.718H2.118V5.77629H3.50259V4.31856H0.733398V22.1757H14.9255V19.2603Z" fill="white"/>
<path d="M4.8877 0.309814V17.8026H18.7337V6.5677L12.7897 0.309814H4.8877ZM17.3491 16.3448H6.27229V1.76754H10.7722V8.69175H17.3491V16.3448ZM17.3491 7.23402H12.1568V1.76754H12.2162L17.3491 7.17148V7.23402Z" fill="white"/>
</svg>
